<?xml version="1.0" encoding="UTF-8"?>
<svg width="41px" height="41px" viewBox="0 0 41 41" version="1.1" xmlns="http://www.w3.org/2000/svg" xmlns:xlink="http://www.w3.org/1999/xlink">
    <title>icon/media-stop</title>
    <defs>
        <polygon id="path-1" points="6.64046729 6.62653549 6.64046729 46.3857484 46.483271 46.3857484 46.483271 6.62653549"></polygon>
    </defs>
    <g id="Page-1" stroke="none" stroke-width="1" fill="none" fill-rule="evenodd">
        <g id="icon/media-stop" transform="translate(-6.061869, -6.006142)">
            <mask id="mask-2" fill="white">
                <use xlink:href="#path-1"></use>
            </mask>
            <use id="Shape" fill="#000000" fill-rule="nonzero" xlink:href="#path-1"></use>
            <g id="Group" mask="url(#mask-2)" fill="#FFFFFF">
                <g id="Color">
                    <rect id="Rectangle" x="0" y="0" width="53.1237383" height="53.0122839"></rect>
                </g>
            </g>
        </g>
    </g>
</svg>